{
  "apiVersion": "v1",
  "kind": "ReplicationController",
  "metadata": {
    "name": "gcp-container-engine-demo"
  },
  "spec": {
    "replicas": 1,
    "selector": {
      "app":"gcp-container-engine-demo"
    },
    "template": {
      "metadata": {
        "labels": {
          "app":"gcp-container-engine-demo"
        }
      },
      "spec": {
        "containers": [
          {
            "name": "gcp-container-engine-demo",
            "image": "gcr.io/dpl-sandbox/gcp-container-engine-demo:v1",
            "ports": [
              {
                "containerPort": 8080,
                "protocol": "TCP"
              }
            ],
            "imagePullPolicy": "IfNotPresent"
          }
        ],
        "restartPolicy": "Always",
        "dnsPolicy": "ClusterFirst"
      }
    }
  }
}
